[1211/130634.746:ERROR:registration_protocol_win.cc(130)] TransactNamedPipe: Ha terminado la canalización. (0x6D)
[1211/131553.686:ERROR:exit_code_watcher_win.cc(87)] Failed to wait for process exit or stop event
[1211/131554.016:ERROR:registration_protocol_win.cc(130)] TransactNamedPipe: Ha terminado la canalización. (0x6D)
[1211/132826.380:ERROR:registration_protocol_win.cc(130)] TransactNamedPipe: Ha terminado la canalización. (0x6D)
[1211/133705.965:ERROR:registration_protocol_win.cc(130)] TransactNamedPipe: Ha terminado la canalización. (0x6D)
[1211/142613.267:ERROR:registration_protocol_win.cc(130)] TransactNamedPipe: Ha terminado la canalización. (0x6D)
[1211/172134.473:ERROR:registration_protocol_win.cc(130)] TransactNamedPipe: Ha terminado la canalización. (0x6D)
[1211/202234.115:ERROR:registration_protocol_win.cc(130)] TransactNamedPipe: Ha terminado la canalización. (0x6D)
[1211/202646.594:ERROR:registration_protocol_win.cc(130)] TransactNamedPipe: Ha terminado la canalización. (0x6D)
[1211/213015.955:ERROR:registration_protocol_win.cc(130)] TransactNamedPipe: Ha terminado la canalización. (0x6D)
[1211/215719.355:ERROR:registration_protocol_win.cc(130)] TransactNamedPipe: Ha terminado la canalización. (0x6D)
